…
```
##    FTH1  MT-CO1  MT-CO3   GAPDH     FTL  MT-CO2  MT-ND4   FABP7  MT-CYB C1orf61 
##   0.758   0.746   0.605   0.580   0.577   0.570   0.564   0.476   0.470   0.452 
## MT-ATP6  TUBA1B    TPI1   STMN2     CKB   HMGB1     JUN   H2AFZ  MT-ND2   SOX11 
##   0.451   0.443   0.422   0.400   0.391   0.387   0.372   0.363   0.357   0.355 
##   SERF2     PKM    ENO1   STMN4   DDIT4 
##   0.354   0.352   0.351   0.336   0.336 
## [1] "/Users/abel.vertesy/Documents/Analysis_R/Vignette_SU/Gene.expression.as.fraction.of.all.transcripts.UMI.s.logY.hist.png"
```

```
## 0.368 sec elapsed
## # A tibble: 25 × 3
##    value names   colour
##    <dbl> <chr>   <chr> 
##  1 0.758 FTH1    1     
##  2 0.746 MT-CO1  1     
##  3 0.605 MT-CO3  1     
##  4 0.58  GAPDH   1     
##  5 0.577 FTL     1     
##  6 0.57  MT-CO2  1     
##  7 0.564 MT-ND4  1     
##  8 0.476 FABP7   1     
##  9 0.47  MT-CYB  1     
## 10 0.452 C1orf61 1     
## # ℹ 15 more rows
## [1] "/Users/abel.vertesy/Documents/Analysis_R/Vignette_SU/Percentage.of.highest.expressed.genes.bar.png"
```
…
----------------------------------------------------------------------------------------------------

## PCA

### `scPlotPCAvarExplained()`
Visualize the variance explained by PCA components, integrating seamlessly with `MarkdownReports` for documentation.


``` r
scPlotPCAvarExplained(combined.obj, plotname = "Variance Explained by Principal Components")
```

```
## # A tibble: 50 × 3
##    value names colour
##    <dbl> <chr> <lgl> 
##  1  9.33 1     TRUE  
##  2  6.51 2     TRUE  
##  3  5.87 3     TRUE  
##  4  3.91 4     TRUE  
##  5  3.62 5     TRUE  
##  6  3.22 6     TRUE  
##  7  3.01 7     TRUE  
##  8  2.68 8     TRUE  
##  9  2.59 9     TRUE  
## 10  2.29 10    TRUE  
## # ℹ 40 more rows
## [1] "/Users/abel.vertesy/Documents/Analysis_R/Vignette_SU/Variance.Explained.by.Principal.Components.bar.png"
```
…
